UserID,BasicKnowledge,TimePressure,RiskAversion,ProtocolFocus,Fairness,Utilitarianism
0,8,3,1,10,7,6
1,8,0,6,7,10,6
2,10,2,8,0,7,4
3,10,5,5,7,10,3
4,10,2,0,10,10,6
5,8,0,2,10,10,6
6,8,0,4,7,10,6
7,8,0,6,0,10,8
8,10,2,6,10,10,5
9,8,0,4,7,7,6
10,10,5,8,7,8,6
11,8,0,6,7,10,5
12,10,0,8,7,5,3
13,8,0,5,7,7,4
14,8,0,6,7,10,5
15,10,0,6,10,10,7
16,10,2,2,7,10,7
17,10,5,8,10,10,6
18,8,0,8,3,10,2
19,6,0,10,7,2,5
20,8,0,10,7,10,6
21,8,0,1,0,10,6
22,10,0,5,0,5,6
23,10,0,10,3,10,6
24,6,0,10,3,10,6
25,10,0,6,10,8,6
26,10,5,6,3,10,6
27,10,5,8,7,10,6
28,10,0,1,10,10,7
29,8,0,1,7,10,5
30,10,0,5,7,8,3
31,10,2,9,7,10,4
32,8,0,2,7,5,4
33,6,1,1,0,10,3
34,8,0,9,7,10,4
35,10,0,5,10,10,7
36,10,0,6,10,8,1
37,10,0,10,7,10,6
38,10,0,1,3,7,1
39,10,0,9,7,8,6
40,10,5,9,3,0,4
41,8,3,5,7,8,3
42,10,0,5,7,8,8
43,10,0,2,3,7,7
44,10,0,1,7,10,8
45,8,0,4,3,10,5
46,8,3,6,0,7,3
47,10,2,9,0,10,7
48,8,6,5,7,7,6
49,10,2,5,3,7,5
50,10,0,6,10,10,5
51,8,0,1,3,10,4
52,6,0,9,3,10,7
53,6,4,9,7,10,4
54,10,5,8,10,7,5
55,10,0,6,7,10,5
56,10,0,5,10,10,6
57,10,2,6,7,5,4
58,8,0,5,0,5,4
59,8,6,0,3,10,5
60,8,0,6,7,10,6
61,10,0,1,7,8,5
62,6,4,2,10,8,2
63,6,0,8,7,10,3
64,8,0,9,7,10,6
65,8,3,8,3,7,8
66,10,5,10,7,2,3
67,8,0,4,7,8,6
68,8,3,10,10,10,9
69,8,3,8,3,7,5
70,4,0,6,7,10,6
71,8,0,8,7,10,4
72,10,5,6,10,8,6
73,6,0,2,0,10,7
74,10,0,9,7,5,4
75,10,5,5,3,7,4
76,10,2,8,7,3,3
77,6,1,9,7,10,3
78,8,0,2,3,8,4
79,10,2,2,7,10,7
80,6,0,9,7,8,6
81,6,0,5,7,3,1
82,10,0,6,10,5,5
83,10,2,1,7,10,6
84,10,5,1,3,7,5
85,10,5,10,7,7,5
86,10,2,4,3,10,6
87,10,8,6,3,10,4
88,10,5,9,3,7,4
89,10,0,10,0,10,4
90,8,0,8,0,10,7
91,10,5,8,3,8,5
92,10,0,8,7,5,3
93,6,0,6,3,8,6
94,6,0,9,3,10,4
95,6,0,8,3,10,2
96,10,2,5,3,10,5
97,10,2,5,3,8,6
98,8,0,4,10,5,3
99,10,0,8,7,7,6
100,6,0,2,10,10,2
101,10,0,8,7,8,6
102,10,0,4,7,2,6
103,10,5,9,7,10,4
104,8,0,8,3,10,7
105,8,3,1,7,5,2
106,8,3,5,0,10,5
107,6,4,9,7,10,6
108,10,2,9,7,10,5
109,10,0,6,3,7,4
110,10,2,6,0,5,3
111,10,2,5,7,10,4
112,10,2,8,3,7,7
113,8,3,4,7,10,5
114,10,5,5,10,10,6
115,10,2,6,3,8,7
116,4,0,9,7,10,8
117,8,0,2,7,8,8
118,10,5,9,3,10,7
119,10,2,8,3,7,5
120,8,0,1,10,7,7
121,10,0,5,3,5,6
122,8,0,8,10,10,4
123,10,0,5,7,5,7
124,10,0,8,7,10,3
125,10,5,6,0,7,4
126,8,3,9,7,10,5
127,10,5,9,7,10,1
128,10,0,6,3,7,7
129,8,0,8,7,10,4
130,10,5,9,3,10,1
131,10,0,6,7,10,5
132,8,3,2,10,10,5
133,10,0,8,10,10,5
134,10,8,2,3,10,2
135,10,0,9,10,7,7
136,8,0,5,7,8,3
137,10,0,1,0,10,5
138,6,6,9,10,10,6
139,10,2,8,7,10,2
140,10,2,8,3,8,7
141,10,0,6,3,7,4
142,8,6,8,3,10,4
143,8,0,5,10,7,4
144,10,0,8,7,10,7
145,10,0,9,7,7,2
146,8,0,6,7,10,6
147,10,2,4,7,7,8
148,10,2,5,7,10,4
149,10,2,9,10,10,3
