{
  "session_id": "a381c6d9-3a2f-4a39-ab57-964fe9858278",
  "responses": [
    {
      "scenario_id": "ADEPT1",
      "probe_id": "ADEPT1-1",
      "choice": "ADEPT1-1-A",
      "justification": ""
    },
    {
      "scenario_id": "ADEPT1",
      "probe_id": "ADEPT1-2",
      "choice": "ADEPT1-2-B",
      "justification": ""
    },
    {
      "scenario_id": "ADEPT1",
      "probe_id": "ADEPT1-3",
      "choice": "ADEPT1-3-A",
      "justification": ""
    },
    {
      "scenario_id": "ADEPT1",
      "probe_id": "ADEPT1-4",
      "choice": "ADEPT1-4-A",
      "justification": ""
    }
  ]
}